﻿str_key_left_control|Left Ctrl
str_key_left_shift|Left Shift
str_key_left_alt|Left Alt
str_key_right_control|Right Ctrl
str_key_right_shift|Right Shift
str_key_right_alt|Right Alt
str_key_left_mouse_button|Left mouse button 
str_key_right_mouse_button|Right mouse button 
str_key_middle_mouse_button|Middle mouse button 
str_press_any_key|Any key to start

str_background_1|Two hundred years of civil war have divided Calradia into five kingdoms.
str_background_2|On the south-eastern prairies is the Khergit Khanate. The Khergits are famous for their extraordinarily swift cavalry that are born with the best horse archery skills from nomad life.
str_background_3|Also, they have developed great spotting skills as well as maneuverability in the rough prairie environment. The vast prairies richly produce horses, pottery, spice, wheat and ale.
str_background_4|The Kingdom of Rhodoks is located in southwest, embraced by plenty of rivers, lakes, mountains and forests. The Rhodoks established their first independent kingdom after the war against Swadia.
str_background_5|In the long war against Swadia, the Rhodoks have learnt to combine long spears and crossbows to break cavalry charges. Their strongholds with well-trained infantry
str_background_6|and crossbowmen are impassable barrier to any invader. The comfortable climate makes it rich in textiles, fruits, olive oil, and the most beautiful yet economical velvet in the world.
str_background_7|The Kingdom of the Nords holds the northern plains along the sea. There are labourious farmers and fishermen, but also bandits and pirates. Some are even said to be from the other side of the ocean.
str_background_8|Due to the lack of horses, the Nords are more accustomed to fighting on foot. The diverse terrain of mountains and forests also makes them more experienced in such complicated battlefields. 
str_background_9|Flax and seafood along the coasts are valuable commodities for inland people, and thus the Nordic linen and smoked fish are some of the most famous local products in these lands. 
str_background_10|The large snowlands and the coastal plains in northeast belong to Vaegir Kingdom. It was a desolate wasteland but the diligent Vaegirs managed to build their homes there with perseverance and tenacious efforts.
str_background_11|The Vaegirs live by hunting in the cold climate, thus they are good at fighting and tracking as well. Vaegir cavalry and infantry can move quickly in any terrain, 
str_background_12|and their archers are universally renowned for their supreme archery. Cheap Vaegir furs and wools are of good quality; dried meat and linen are also popular commodities in trades.  
str_background_13|In central Calradia there is the ancient kingdom of Swadia, which was the heart of the ancient Calradia Empire. Having the largest capital city of these lands,
str_background_14|it naturally has busy traffic and all kinds of crops, as well as prosperous industries such as brewing, textile production, and forging. Swadia heavily armoured cavalries dominate the plains
str_background_15|and are even more formidable combined with infantries and crossbowmen. This is also why Swadia can maintain its position even while in the envelopment of the other kingdoms.
str_background_16|...  Such conditions have lasted hundreds of years.
str_background_17|But today, on March 23rd, in the Year 1257,
str_background_18|in a neutral town by the Ewu river, which is named 'Zendar',
str_background_19|a gate of destiny has been opened for Calradia ...

str_do_you_accept_s|The remaining enemies surrendered! You decide to:
str_surrender_yes|Accept surrender
str_surrender_no|Take no prisoners

str_no_key_assigned|No key assigned
str_cannot_fullback|Find the way out!
str_cave_door_is_close|Locked!

str_hero_charge_mounted|Mount
str_hero_charge_unmounted|Dismount
str_hero_charge_ranged|Allow
str_hero_charge_unranged|Not allow
str_weapon_style_none|Any weapon
str_weapon_style_one_handed|One-handed weapons and shield
str_weapon_style_two_handed|Two-handed weapons
str_weapon_style_polearm|Pllearms (no lances)
str_weapon_style_lance|Spears and shield
str_weapon_style_heavy_lance|Heavy lances (without shield)
str_weapon_style_polearm_all|Any polearms
str_weapon_style_blunt|Blunt weapons
str_weapon_style_short_none|Any weapons
str_weapon_style_short_one_handed|One-handed weapons and shield
str_weapon_style_short_two_handed|Two-handed weapons
str_weapon_style_short_polearm|Polearms (no lances)
str_weapon_style_short_lance|Spears and shield
str_weapon_style_short_heavy_lance|Heavy lances (no shield)
str_weapon_style_short_polearm_all|Any polearms
str_weapon_style_short_blunt|Blunt weapons
str_none|None
str_turn_back|Back to 'Camp' menu?
str_you_win|You Win!
str_you_lose|You lose.
str_relation:_{reg1}|Relationship: {reg1}
str_riverside|They said a goddess appeared from the Ewu river...But why have I not seen her before?
str_zendar_secret|Robin the Fat told me about a treasure he had buried in the town, but he wouldn’t tell me where it is.
str_nothing|Nothing interesting happened recently...
str_dont_camp_at_night|Quite a few caravans were robbedat night. Be careful.
str_join_demand_default|...Well, there's no other choice...Okay, I'm in.
str_join_demand_martial|Whatever, it should be an honour to be part of a great team. So, count me in. 
str_join_demand_quarrelsome|Enough, please, let me go! I never wished to fight you!
str_join_demand_pitiless|So, it is you who needs me, I didn’t beg you.
str_join_demand_cunning|Oh milord, I will do anything for you. Let's make our future together! 
str_join_demand_sadistic|Since this is the way it is, return my sword, please. We have the same enemy from now on. I will cut them into pieces and feed them to the crows; I’ll make it clear to them the horrible consequences of being against us.
str_join_demand_goodnatured|You don't look like a cruel one...Okay, I promise to help you end the war.
str_join_demand_upstanding|Alright, I see that you are also an honourable knight, so I will join you. Let's join hands together to exterminate the greed and evil in the world. 
str_join_demand_no_default|No, I won't join you.

str_join_demand_no_martial|You win this time, but you won’t next time!
str_join_demand_no_quarrelsome|Are you trying to humiliate me? Get lost, you bastard!
str_join_demand_no_pitiless|Stop dreaming!
str_join_demand_no_cunning|Ha ha, don't try to use me to fight for you.
str_join_demand_no_sadistic|Are you expecting me to trust you? Unless you cut your heart out and place it on my hands.
str_join_demand_no_goodnatured|I don't think your honour and mercy match your valour, so I won't join you. 
str_join_demand_no_upstanding|I don't think your honour and mercy match your valour, so I won't join you. 

str_borcha_enemy_killed|'Ha-ha, weak scum! Who dares to come next?'
str_borcha_enemy_killed_2|'Not so easy fighting me, huh? Stupid pig!' 
str_marnid_enemy_killed|'Oh, sorry...I didn’t think you were so weak' 
str_marnid_enemy_killed_2|Ha ha, get more points on my proficiency!' 
str_ymira_enemy_killed|'Don't look down on women! I'll show you the real me!' 
str_ymira_enemy_killed_2|'O...sorry, just protecting myself!' 
str_rolf_enemy_killed|'Ha, you did well enough to go to hell~~!' 
str_rolf_enemy_killed_2|'Ha-ha~! Idiot, trying to fight me?' 
str_mengmian_enemy_killed|'Easy fighting!' 
str_mengmian_enemy_killed_2|'Target exterminated! Next...' 
str_xerina_enemy_killed|'Woo, sorry, I don't mean to hurt you that much...' 
str_xerina_enemy_killed_2|'Dare you look down on women anymore? You deserved it!' 
str_dranton_enemy_killed|'You fools, go to hell!' 
str_dranton_enemy_killed_2|'(Heh, no time to talk while fighting)' 
str_kradus_enemy_killed|'Any one stronger? Come on, die!' 
str_kradus_enemy_killed_2|'Hey...Come on, fight me!...or come, all of you, at once!' 
str_sophia_enemy_killed|' ……'
str_sophia_enemy_killed_2|'……'
str_nabaer_enemy_killed|'I am the Cloud;Thunder is my friend~!' 
str_nabaer_enemy_killed_2|'Ha-ha, see who you are facing now?' 
str_hel_enemy_killed|'Your head is mine! Ha, what a pretty skull...' 
str_hel_enemy_killed_2|'Hey, {laddie/lassie}, this arrow is to take your heart...' 
str_jormungand_enemy_killed|'Arghh! No one stands in my way!' 
str_jormungand_enemy_killed_2|'Kill them all! I want more blood!' 
str_fenrir_enemy_killed|'...Poor human! I'm getting bored...' 
str_fenrir_enemy_killed_2|'Still fighting? I guess you’re brave enough...' 
str_anyone_enemy_killed|'Blocking with your head? You impress me!' 
str_borcha_hp_lower|'I feel dizzy... Doctor?!' 
str_borcha_hp_lower_2|'No, I'm dying... Stop it! Stop!' 
str_marnid_hp_lower|'Help! Someone help!' 
str_marnid_hp_lower_2|'Ah! I'm trapped! Help!' 
str_ymira_hp_lower|'Errr...Is this your manners to the ladies?!' 
str_ymira_hp_lower_2|'I can't hold it...sir {playername}...' 
str_rolf_hp_lower|'Ouch! Who the hell was that?!' 
str_rolf_hp_lower_2|'Damn you bastards! I'll fight you to death!' 
str_mengmian_hp_lower|'Woo...too tough to fight them head-on...' 
str_mengmian_hp_lower_2|'They are much tougher than we expected. Shall we switch tactics, {playername}?' 
str_xerina_hp_lower|'Hoo...Tough devils...' 
str_xerina_hp_lower_2|'Alas! Those bastards...they want to raid us!' 
str_dranton_hp_lower|'woo...huu...' 
str_dranton_hp_lower_2|'...Why are they so serious...?' 
str_kradus_hp_lower|'I didn't sleep last night, so tired now...' 
str_kradus_hp_lower_2|'You want a real fight? Do you know the last drop of blood? Let me show you now!' 
str_sophia_hp_lower|'...'
str_sophia_hp_lower_2|'...'
str_nabaer_hp_lower|'I'm Cloud. Thunder is my...Wa! Who the hell was that?' 
str_nabaer_hp_lower_2|'No! No, no! Don't hit my face...' 
str_hel_hp_lower|'Woo...You’re not bad!' 
str_hel_hp_lower_2|'Woo...I should be serious now!'
str_jormungand_hp_lower|'...I am beaten...' 
str_jormungand_hp_lower_2|'Wuu...Huu...!' 
str_fenrir_hp_lower|'Damn it! You cheater!' 
str_fenrir_hp_lower_2|'...I must be serious now...' 
str_anyone_hp_lower|'I can't stand it anymore! Stop it! Please!' 
str_anyone_hp_lower_2|'You just hurt me! Damn it! Let’s fight this out!' 
str_anyone_hp_lower_3|'Wow, you fight well. I was a little bit careless there...' 
str_oguma_hp_lower|'O-ho...Such a small wound...but I can't continue...'
str_oguma_hp_lower_2|'Ha-ha-ha! Sweet! ...Er, why is there a sword in my back?'
str_baheshtur_hp_lower|'Hu! We Khergits never give up!'
str_baheshtur_hp_lower_2|'Hu! We Khergits never fear!'
str_melva_hp_lower|'Grrrrrrr! That hurts!'
str_melva_hp_lower_2|'Tough guys!'
str_trainer_hp_lower|'...I should be careful now...'
str_trainer_hp_lower_2|'...I should be careful now...'
str_arrasies_hp_lower|'...Can we hold it?...'
str_arrasies_hp_lower_2|'...Are we going to lose?...'

str_anyone_player_cheat|'Cheater! {playername} cheated!' 
str_anyone_player_cheat_2|'You cheater! Shame on you!' 
str_nabaer_first|'You'll get enough from me today! Go get him!' 
str_nabaer_second|'Ha-ha, poor {laddie/lassie}, no luck today! I got you!' 
str_mengmian_1|'Watch out! Those monsters are different!' 
str_mengmian_2|'I get it now! The monsters are guided by the torch lights on the walls. Break them first!' 
str_jormungand_act_zendar|'Onwards to Zendar, march! Kill everything in the way!' 
str_hel_st_apply|'Hu, you are strong but not strong enough!' 
str_trap_dark_hunter_line|'By the order of the High Priest, put all rebels to death. Get them!'
str_trap_rolf_line|'A bevy against one? I'll help you!'
str_oguma_enemy_killed|'Get lost, or die now!'
str_oguma_enemy_killed_2|'Drop your sword and live!'
str_baheshtur_enemy_killed|'Tiny ants! Come on, fight one of my hands!'
str_baheshtur_enemy_killed_2|'All worms! So boring!'
str_melva_enemy_killed|'Don’t make a fool out of yourself! Ha-ha!'
str_melva_enemy_killed_2|'You are good, but no match for me. Admit defeat!'
str_trainer_enemy_killed|'Drop your sword and live!'
str_trainer_enemy_killed_2|'You fight well but do evil! Come and die!'
str_arrasies_enemy_killed|'For Zendar!'
str_arrasies_enemy_killed_2|'Get out of our home!'


str_borcha_honorific|Boss
str_marnid_honorific|Boss
str_ymira_honorific|{milord/milady}
str_rolf_honorific|Captain
str_mengmian_honorific|{milord/milady} {playername}
str_xerina_honorific|Commander
str_dranton_honorific|Commander
str_kradus_honorific|{boy/girl}...I mean commander
str_nabaer_honorific|{laddie/lassie} 
str_hel_honorific|Lovely {boy/girl}
str_jormungand_honorific|Commander
str_fenrir_honorific|Brave {man/lady} 

str_name_oath_of_a_knight|'OATH OF A KNIGHT'
str_name_ancient_legends|'An ANCIENT LEGEND'
str_name_expedition|'TO WAR'
str_name_soldiers_sigh|'GLORY AND SOULS'
str_name_dead_complaints|'A GRAVE'S COMPLAINT'
str_name_optimistic_country|'KINGDOM IN HOPE'
str_name_post_war|'THE DAY AFTER THE WAR'
str_name_hold_fast_this_place_1|'HOLD THE LINE' [I]
str_name_hold_fast_this_place_2|'HOLD THE LINE' [II]
str_name_hold_fast_this_place_3|'HOLD THE LINE' [III]
str_name_folk_tales_1|'TALES OF NORDS'[I]
str_name_folk_tales_2|'TALES OF NORDS'[II]
str_name_folk_tales_3|'TALES OF NORDS'[III]
str_name_folk_tales_4|'TALES OF NORDS'[IV]

str_oath_of_a_knight|'OATH OF A KNIGHT' ^^Be loyal of hand and of mouth, seeking to serve every man as best ye may.^Seek ye the fellowship of good men, hearken unto their words and remember them.^Be humble and courteous wherever thou goest, not talking much, neither being dumb altogether.^Allow no women or child to suffer by thy default, so that if ye may lift thy hand to assist one, do so.^If thou must draw thy sword to defend them, do so unto thy own death.
str_oath_of_a_knight2|If thou come into fellowship with boys or men who speak in a disrespectful manner of any women or maiden, let them know in gracious words that this displeases thou and thy Lord, then depart their company forthwith.^Thou art to defend and protect those who seek to worship in the name of the Lord Jesus Christ and promote faith in Him throughout this earth He has made. 

str_ancient_legends|'AN ANCIENT TALE'^^Far, far in the past,^Storms of darkness swept over the world.^Countries were broken^Lives were ruined.^When people sunk in despair,^A Great Warrior with brilliancy^Came down from the heaven.^He split the darkness^With a legendary huge sword.^Hence the nature wakes back^In the hopes of people reburned.

str_expedition|'TO THE WAR'^^Filled with sorrow in chest,^I dropped the head leaving my homeland.^Not far ahead there's an unknown battlefield,^My poor brothers' skeletons laid in blooding soil.^^Though river slowing my feet,^I can do nothing but go^Under the whips striken behind^By the noble lord of so brutal.
str_expedition2|Owning countless land in own country,^Their insatiable greed never ends though.^Further and further,^family dissapeared in my eyes;^Step by step,^I'm more like a walking ghost.^Now in the cold hands of mine^Only the icy lance^Hears the heart sobbing alone.

str_soldiers_sigh|'GLORY AND SOUL'^^The glory belongs to King,^With the palace decorated by enemy's broken arms;^The vitory belongs to King,^With the road of return paved with enemy's bones.^Who knows,^Where the origin of the war has ever been.^We see,^Dust on the battlefield turns bloody red.^Who knows,^Where the origin of the war has ever been.^We see,^Expression in the eyes turns icy cold.
str_soldiers_sigh2|^The lost souls wander on the land,^Nowhere came nowhere go.^^Knights line up in the sunrise,^But disappear at the sunset.^Alone with the night wind breezing,^There might be a feeling.^Or nothing.

str_dead_complaints|'A GRAVE COMPLAINS'^^Escaping from the war, I climbed the cliff out of Tihr. ^Hidden in the long grass, a grave is complaining there.^It murmurs longer to self, unware of a listener behind.^'By the familier sound of horn, a draft begins for another around.^It's just a month ago that my bones were buried underground.
str_dead_complaints2|^May as well rot my maimed ears!^However strongly the sea wind blows, the widows' crying never stops!^Numerous swords have been produced, however the hammers keep striking^All day and all night in the blacksmiths' scaly hands.^May as well rot my maimed ears!^However strongly the sea wind blows, the horses' moans never stops!
str_dead_complaints3|The dead are crowded in soil, whereas the villages become deserts.^Come! Come! ^Here some ones have been bored,^There some else wants another fight!^I intonate in solitude,^But The dead can not hear^Nor the living can not get.^May the arrows in bones rot sooner!^Than suffer from the war For ever I'd rather die!'

str_optimistic_country|'KINGDOM IN HOPE'^^The King walks out,^With flowers sprinkled all around.^The knights cheer in high morale^And people laugh over the town.^Yelled by the King at the city gate,^'Hey, warriors! Polish your lance! Kill more enemies for wife and kids!'^'Hey, kids! Learn your father to fight braverly! For your future wife and kids!'^'Hey, wives! Do not worry about the warriors!^ They are protected by God! We won't have widow any more!'
str_optimistic_country2|'Hey, I love you all! May you healthy to long life!'^'We are going for the war! We, in hope, must win!'^People shout with joy. Kids caper for farewell.^The army marched on, ^While the King covered his face in hands, ^Trying to hold the hot tears pouring. ^The 'Kingdom In Hope' fell down the next day.^Except Vaegir, no one knows^-That traitor is the King.
 
str_folk_tales_1|'TALES OF NORDS'[I]^^On Calradia lands,^Burned with rebellions and wars,^Two men of virtue and ideals^Joined the army on a sudden impulse.^They spent the childhood as brothers.^They play happily with each other^And fight side-by-side heroically nowadays.^This becomes a soldier.^So that does.
str_folk_tales_1_2|A great war broke out, ^Whereas Nords was defeated on collapse.^While the brothers being bottled up,^This chose to die^and that surrendered in a choice.^Sun rises and sets as usual,^And time goes by as always.^This is a soilder.^So that is.

str_folk_tales_2|'TALES OF NORDS'[II]^^Bow on the back,Sword in the hand, Maul by the waist.^Watching the hometown,^Watching the capital city,^The man can no longer hold tears pouring down.^Right at this moment,^He must polish up the shield^with a soft handkerchief on him.^Trumpet is blowed up,^When he rushed into the enemy.^He is a soldier.^Always, he is.
str_folk_tales_2_2|Till the early next morning, smoke has not drifted away.^The noble was hanged for his dream of reign,^As a proof that evil's defeated by justice.^The soldier came back home,^But found her old mother watch like watching a ghost.^No, she's mad! She's mad!^The poor old lady was crushed,^In the eyes filled with fears.^No, she's dead! She's dead!^He is a soldier.^Still, he is.

str_folk_tales_3|'TALES OF NORDS'[III]^^Ten years after, he's got eventually retired.^Looking back on his brother, surprisingly he smiled.^But suddenly a wail from the man arose in the wilderness that no one care.^The lance, the dagger, the bow, the coats^- everything have been packed,^Before he left home far somewhere.^He is now a commoner.^He is still a soldier.
str_folk_tales_3_2|Fifty years after, he's grown a head of white hair.^Lying on the bed, he suffers out of breath.^The son, the daughter, the wife, the grandchild^- whole family watch at his bedside.^Now as an old man, he enjoys a happy life.^Yet on the last second, he feels uneasiness in mind.^He is now a commoner. ^He is always a soldier.

str_folk_tales_4|'TALES OF NORDS'[IV]^^Walking into the heaven, the old man looks same as ever.^A pneumonia recurs often, as the old wounds still relapse.^Unexpectly at the entrance, his younger brother appears,^Who still shows the childishness on an innocent boy face.^The old man strikes dumb and puffy-eyed. ^While he follows the brother into Nords hand-in-hand.
str_folk_tales_4_2|^So far he cannot help crying,^For the pure happiness forever.^He is always a commoner.^He is always a soldier.^^In a corner of the hell,Two thiefs squatting down there,^-a little child and an old grandfather.^The little asks,^'What is the heaven like?'^'So it is the heaven here!'^ as the old laughs.
str_folk_tales_4_3|'What is the hell, then?'^ again asked the little.^Looking up to sky,^the old breaks into a snigger.^For seconds he turns off,^with lines of tears down the face.^He is always a commoner.^A commoner^He always is.

str_post_war|'THE DAY AFTER WAR'^^Under the darkness of night,^the ship streaks silently through the river.^I sit in solitude,^anticipating the bloody dawn.^In the frozen air,^only death can break the suffocating silence. 
str_post_war2|As the ship sails home^against the setting sun,^I still sit in solitude, ^with behind a deserted cargo.^In the celebratory banquet,^I drown myself in wines and ales,^and I wish never to awake again.

str_hold_fast_this_place_1|'HOLD THE LINE'[I]^^What's swiming with the fish,^What's floating with the prawns,^Not green water weeds,^Not lithe catkin,^But blood,^But flesh,^The body without anima.^^Who had the saying that those people come to the world naked?^They brought the hardships of parents,^They held the wishes of newborn.^Who told the rumour that those peole leave the world with nihility?
str_hold_fast_this_place_1_2|They bear the honour of the kingdom,^They carried the valor of defending.^^That's not important anymore.^When their hearts were beating,^As soldiers of the kingdom,^They were inferior on the battlefield.^When they lost their last breath,^As ghosts of the war,^They were still negligible on the bloody river.

str_hold_fast_this_place_2|'HOLD THE LINE'[II]^^Do you know?^There are tiny villages,^Just like twinkle stars in the night sky,^Scattered over the frozen plain^In the backyard of Vaegir.^There exists frigid that could chill you to death.^There exists furnace fire that could warm you instantly.
str_hold_fast_this_place_2_2|Beside the furnace fire,^Beneath the thick,straw-made roof,^There is a young married woman with tied up golden hair,^She ties her missing up,^Stacks it onto the middle of her heart,^Burns it as the furnace fire beside her.^And only with such method,^The passionate missing could be kept warm,^Where the heat from fire never reach.

str_hold_fast_this_place_3|'HOLD THE LINE'[III]^^The young married woman finishes counting the days^The days that she has been awaiting quietly.^Spreads her shining golden hair upon the pillow,^The pillow that still preserves the heat from the beloved one.^Closing the eyes against her own will,^She tries to leave a gentle kiss for her husband just like in the old days,^Who has been to perform military service for Kingdom of Vaegirs.
str_hold_fast_this_place_3_2|So it is.^The man defends the border far away,^The woman defends the love inside the soul.^The dead body of the husband is floating on the river after falling,^But where will the collapsed heart of the wife attach to?

str_faction_title_male_7|Lord {s0} 
str_faction_title_female_7|Lord {s0}
